doc_id,prediction
0,2
2,2
7,1
15,2
16,2
24,2
31,2
32,2
36,1
38,1
39,2
43,2
46,2
47,2
50,2
51,2
53,2
56,2
58,2
59,2
60,2
62,3
65,2
66,2
68,2
69,1
70,2
71,1
74,2
78,1
82,2
84,2
87,2
91,2
99,2
103,1
104,2
109,2
113,2
116,1
123,1
124,2
127,2
134,2
135,2
142,2
143,2
147,2
